…
parties

## # A tibble: 330 x 10
##     page  year transaction name   typenomf typemf spouse side  cite   simplecite
##    <dbl> <dbl> <chr>       <chr>  <chr>    <chr>  <chr>  <chr> <chr>  <chr>     
##  1    18  1923 Business    Allen  Man      Man    N      π     Allen… Allen v. …
##  2    21  2017 Consumer    Spenc… Man      Man    N      π     Meyer… Meyer v. …
##  3    37  1952 Consumer    Calvi… Man      Man    Y      π     Ray v… Ray v. Wi…
##  4    37  1952 Consumer    Kathe… Woman    Woman  Y      π     Ray v… Ray v. Wi…
##  5    47  1954 Property    Loner… Man      Man    N      π     Loner… Lonergan …
##  6    51  1985 Property    Micha… Man      Man    N      π     Normi… Normile v…
##  7    51  1985 Property    Wawie… Unknown  Unkno… N      π     Normi… Normile v…
##  8    51  1985 Property    Segal  Unknown  Unkno… N      π     Normi… Normile v…
##  9    51  1985 Property    Glady… Woman    Woman  N      π     Normi… Normile v…
## 10    61  1998 Employee    Mary … Woman    Woman  N      π     Cook … Cook v. C…
## # … with 320 more rows
…
